testbench.vcd
$date
	Wed Mar  9 09:18:50 2022
$end
$version
	Icarus Verilog
$end
$timescale
	100ps
$end
$scope module cpu_tb $end
$var wire 1 ! BUSYWAIT $end
$var wire 1 " WRITE_mem $end
$var wire 32 # WRITEDATA_mem [31:0] $end
$var wire 8 $ WRITEDATA [7:0] $end
$var wire 1 % WRITE $end
$var wire 1 & READ_mem $end
$var wire 1 ' READ_insMem $end
$var wire 128 ( READ_INST [127:0] $end
$var wire 32 ) READDATA_mem [31:0] $end
$var wire 8 * READDATA [7:0] $end
$var wire 1 + READ $end
$var wire 10 , PC [9:0] $end
$var wire 32 - INSTRUCTION [31:0] $end
$var wire 1 . BUSYWAIT_mem $end
$var wire 1 / BUSYWAIT_insMem $end
$var wire 6 0 ADDRESS_mem [5:0] $end
$var wire 6 1 ADDRESS_insMem [5:0] $end
$var wire 8 2 ADDRESS [7:0] $end
$var reg 1 3 CLK $end
$var reg 1 4 RESET $end
$scope module InsMem $end
$var wire 1 3 clock $end
$var wire 1 ' read $end
$var wire 6 5 address [5:0] $end
$var reg 1 / busywait $end
$var reg 1 6 readaccess $end
$var reg 128 7 readinst [127:0] $end
$upscope $end
$scope module dataMem $end
$var wire 1 3 clock $end
$var wire 1 4 reset $end
$var wire 32 8 writedata [31:0] $end
$var wire 1 " write $end
$var wire 1 & read $end
$var wire 6 9 address [5:0] $end
$var reg 1 . busywait $end
$var reg 1 : readaccess $end
$var reg 32 ; readdata [31:0] $end
$var reg 1 < writeaccess $end
$var integer 32 = i [31:0] $end
$upscope $end
$scope module insMycache $end
$var wire 1 / BUSYWAIT_instruction_mem $end
$var wire 1 3 CLOCK $end
$var wire 128 > READ_INST [127:0] $end
$var wire 1 4 RESET $end
$var wire 3 ? Tag [2:0] $end
$var wire 10 @ PC [9:0] $end
$var wire 2 A Offset [1:0] $end
$var wire 3 B Index [2:0] $end
$var reg 6 C ADDRESS_instruction_mem [5:0] $end
$var reg 1 D BUSYWAIT $end
$var reg 3 E Cache_tag [2:0] $end
$var reg 1 F Hit $end
$var reg 32 G INSTRUCTION [31:0] $end
$var reg 128 H Instruction_block_from_cache [127:0] $end
$var reg 32 I Instruction_from_cache [31:0] $end
$var reg 1 ' READ_instruction_mem $end
$var reg 1 J Valid $end
$var reg 3 K next_state [2:0] $end
$var reg 3 L state [2:0] $end
$var integer 32 M index [31:0] $end
$upscope $end
$scope module myCPU $end
$var wire 8 N ADDRESS [7:0] $end
$var wire 1 ! BUSYWAIT $end
$var wire 1 3 CLK $end
$var wire 32 O INSTRUCTION [31:0] $end
$var wire 1 4 RESET $end
$var wire 8 P WRITEDATA [7:0] $end
$var wire 8 Q comp_result [7:0] $end
$var wire 1 R ZERO $end
$var wire 1 S WriteData_Select $end
$var wire 3 T WRITEREG [2:0] $end
$var wire 1 U WRITEENABLE $end
$var wire 1 % WRITE $end
$var wire 8 V REGOUT2 [7:0] $end
$var wire 8 W REGOUT1 [7:0] $end
$var wire 3 X READREG2 [2:0] $end
$var wire 3 Y READREG1 [2:0] $end
$var wire 8 Z READDATA [7:0] $end
$var wire 1 + READ $end
$var wire 10 [ PC_Temp [9:0] $end
$var wire 10 \ PC_OFFSET [9:0] $end
$var wire 10 ] PC_NEXT [9:0] $end
$var wire 10 ^ PC [9:0] $end
$var wire 1 _ J $end
$var wire 8 ` IN [7:0] $end
$var wire 8 a IMMEDIATE_OFFSET [7:0] $end
$var wire 8 b IMMEDIATE_DATA [7:0] $end
$var wire 1 c IMMEDIATE $end
$var wire 8 d DATA2 [7:0] $end
$var wire 8 e COMP_MUX_RESULT [7:0] $end
$var wire 1 f COMPLEMENT $end
$var wire 1 g BEQ $end
$var wire 8 h ALURESULT [7:0] $end
$var wire 3 i ALUOP [2:0] $end
$scope module comp $end
$var wire 8 j IN [7:0] $end
$var reg 8 k OUT [7:0] $end
$upscope $end
$scope module ctrl_signals $end
$var wire 32 l INSTRUCTION [31:0] $end
$var reg 3 m ALUOP [2:0] $end
$var reg 1 g BEQ $end
$var reg 1 f COMPLEMENT $end
$var reg 1 c IMMEDIATE $end
$var reg 1 _ J $end
$var reg 1 + READ $end
$var reg 1 % WRITE $end
$var reg 1 U WRITEENABLE $end
$var reg 1 S WriteData_Select $end
$upscope $end
$scope module mux $end
$var wire 1 S SELECT $end
$var wire 8 n READDATA [7:0] $end
$var wire 8 o ALURESULT [7:0] $end
$var reg 8 p IN [7:0] $end
$upscope $end
$scope module mux1 $end
$var wire 1 f COMPLEMENT $end
$var wire 8 q COMP_RESULT [7:0] $end
$var wire 8 r REGOUT2 [7:0] $end
$var reg 8 s RESULT [7:0] $end
$upscope $end
$scope module mux2 $end
$var wire 8 t COMP_MUX_RESULT [7:0] $end
$var wire 1 c IMMEDIATE $end
$var wire 8 u IMMEDIATE_DATA [7:0] $end
$var reg 8 v RESULT [7:0] $end
$upscope $end
$scope module my_alu $end
$var wire 8 w DATA2 [7:0] $end
$var wire 3 x SELECT [2:0] $end
$var wire 8 y RESULT_OR [7:0] $end
$var wire 8 z RESULT_FW [7:0] $end
$var wire 8 { RESULT_AND [7:0] $end
$var wire 8 | RESULT_AD [7:0] $end
$var wire 8 } DATA1 [7:0] $end
$var reg 8 ~ RESULT [7:0] $end
$var reg 1 R ZERO $end
$scope module ad $end
$var wire 8 !" DATA2 [7:0] $end
$var wire 8 "" DATA1 [7:0] $end
$var reg 8 #" RESULT [7:0] $end
$upscope $end
$scope module an $end
$var wire 8 $" DATA2 [7:0] $end
$var wire 8 %" DATA1 [7:0] $end
$var reg 8 &" RESULT [7:0] $end
$upscope $end
$scope module fw $end
$var wire 8 '" DATA2 [7:0] $end
$var reg 8 (" RESULT [7:0] $end
$upscope $end
$scope module orr $end
$var wire 8 )" DATA2 [7:0] $end
$var wire 8 *" DATA1 [7:0] $end
$var reg 8 +" RESULT [7:0] $end
$upscope $end
$upscope $end
$scope module pc_add $end
$var wire 10 ," NEXT_PC [9:0] $end
$var wire 10 -" CURRENT_PC [9:0] $end
$upscope $end
$scope module pc_offset $end
$var wire 8 ." IMMEDIATE_OFFSET [7:0] $end
$var wire 32 /" INSTRUCTION [31:0] $end
$var wire 10 0" PC_NEXT [9:0] $end
$var reg 10 1" PC_OFFSET [9:0] $end
$var reg 32 2" PC_OFFSET_32 [31:0] $end
$var reg 32 3" sign_extend_OFFSET [31:0] $end
$upscope $end
$scope module pc_up $end
$var wire 1 ! BUSYWAIT $end
$var wire 1 3 CLK $end
$var wire 1 4 RESET $end
$var wire 10 4" NEXT_PC [9:0] $end
$var reg 10 5" CURRENT_PC [9:0] $end
$upscope $end
$scope module registers $end
$var wire 1 ! BUSYWAIT $end
$var wire 1 3 CLK $end
$var wire 8 6" IN [7:0] $end
$var wire 3 7" INADDRESS [2:0] $end
$var wire 8 8" OUT1 [7:0] $end
$var wire 3 9" OUT1ADDRESS [2:0] $end
$var wire 8 :" OUT2 [7:0] $end
$var wire 3 ;" OUT2ADDRESS [2:0] $end
$var wire 1 4 RESET $end
$var wire 1 U WRITE $end
$var integer 32 <" count [31:0] $end
$upscope $end
$scope module select_pc $end
$var wire 1 g BEQ $end
$var wire 1 _ J $end
$var wire 10 =" PC_OFFSET [9:0] $end
$var wire 10 >" PC_Temp [9:0] $end
$var wire 1 R ZERO $end
$var wire 1 ?" and_result $end
$var wire 1 @" ctrl_mux $end
$var reg 10 A" PC_NEXT [9:0] $end
$upscope $end
$upscope $end
$scope module myCache $end
$var wire 8 B" ADDRESS_cpu [7:0] $end
$var wire 1 . BUSYWAIT_mem $end
$var wire 1 3 CLK $end
$var wire 1 C" HIT $end
$var wire 32 D" READDATA_mem [31:0] $end
$var wire 1 + READ_cpu $end
$var wire 1 4 RESET $end
$var wire 8 E" WRITEDATA_cpu [7:0] $end
$var wire 1 % WRITE_cpu $end
$var wire 1 F" Tag_Ready $end
$var wire 3 G" Tag [2:0] $end
$var wire 2 H" Offset [1:0] $end
$var wire 3 I" Index [2:0] $end
$var reg 6 J" ADDRESS_mem [5:0] $end
$var reg 1 K" BUSYWAIT_cpu $end
$var reg 8 L" Data_word [7:0] $end
$var reg 1 M" Dirty $end
$var reg 32 N" Index_Block [31:0] $end
$var reg 8 O" READDATA_cpu [7:0] $end
$var reg 1 & READ_mem $end
$var reg 1 P" Read_Done $end
$var reg 32 Q" Temp [31:0] $end
$var reg 1 R" Valid $end
$var reg 32 S" WRITEDATA_mem [31:0] $end
$var reg 1 " WRITE_mem $end
$var reg 3 T" next_state [2:0] $end
$var reg 3 U" state [2:0] $end
$var integer 32 V" count [31:0] $end
$upscope $end
$upscope $end
$enddefinitions $end
#0
$dumpvars
bx V"
bx U"
bx T"
bx S"
xR"
bx Q"
xP"
bx O"
bx N"
xM"
bx L"
xK"
bx J"
bx I"
bx H"
bx G"
xF"
bx E"
bx D"
xC"
bx B"
bx A"
x@"
x?"
bx >"
bx ="
bx <"
bx ;"
bx :"
bx 9"
bx 8"
bx 7"
bx 6"
bx 5"
bx 4"
bx 3"
bx 2"
bx 1"
bx 0"
bx /"
bx ."
bx -"
bx ,"
bx +"
bx *"
bx )"
bx ("
bx '"
bx &"
bx %"
bx $"
bx #"
bx ""
bx !"
bx ~
bx }
bx |
bx {
bx z
bx y
bx x
bx w
bx v
bx u
bx t
bx s
bx r
bx q
bx p
bx o
bx n
bx m
bx l
bx k
bx j
bx i
bx h
xg
xf
bx e
bx d
xc
bx b
bx a
bx `
x_
bx ^
bx ]
bx \
bx [
bx Z
bx Y
bx X
bx W
bx V
xU
bx T
xS
xR
bx Q
bx P
bx O
bx N
bx M
bx L
bx K
xJ
bx I
bx H
bx G
xF
bx E
xD
bx C
bx B
bx A
bx @
bx ?
bx >
bx =
x<
bx ;
x:
bx 9
bx 8
bx 7
06
bx 5
04
03
bx 2
bx 1
bx 0
0/
x.
bx -
bx ,
x+
bx *
bx )
bx (
x'
x&
x%
bx $
bx #
x"
x!
$end
#30
b0 K
0'
0K"
0"
0&
0P"
b0 T"
0<
0:
0.
b100000000 =
b0 L
b0 U"
14
#40
b1000 M
b1000 V"
13
#50
b0 A
b0 B
b0 ?
b0 ,
b0 @
b0 ^
b0 -"
b0 5"
b1000 <"
#59
b1 K
1D
0F
#60
b100 [
b100 4"
b100 A"
b0 I
0J
b0 H
b100 ]
b100 ,"
b100 0"
b100 >"
#80
03
04
#120
16
1/
b1 K
1'
b0 1
b0 5
b0 C
b1 L
13
#160
03
#200
13
#240
03
#280
13
#320
03
#360
13
#400
03
#440
13
#480
03
#520
13
#560
03
#600
13
bx00001001 (
bx00001001 7
bx00001001 >
#640
03
#680
13
#720
03
#760
13
#800
03
#840
13
#880
03
#920
13
#960
03
#1000
13
bx0000000000001001 (
bx0000000000001001 7
bx0000000000001001 >
#1040
03
#1080
13
#1120
03
#1160
13
#1200
03
#1240
13
#1280
03
#1320
13
#1360
03
#1400
13
bx000000000000000000001001 (
bx000000000000000000001001 7
bx000000000000000000001001 >
#1440
03
#1480
13
#1520
03
#1560
13
#1600
03
#1640
13
#1680
03
#1720
13
#1760
03
#1800
13
bx00000101000000000000000000001001 (
bx00000101000000000000000000001001 7
bx00000101000000000000000000001001 >
#1840
03
#1880
13
#1920
03
#1960
13
#2000
03
#2040
13
#2080
03
#2120
13
#2160
03
#2200
13
bx0000000100000101000000000000000000001001 (
bx0000000100000101000000000000000000001001 7
bx0000000100000101000000000000000000001001 >
#2240
03
#2280
13
#2320
03
#2360
13
#2400
03
#2440
13
#2480
03
#2520
13
#2560
03
#2600
13
bx000000000000000100000101000000000000000000001001 (
bx000000000000000100000101000000000000000000001001 7
bx000000000000000100000101000000000000000000001001 >
#2640
03
#2680
13
#2720
03
#2760
13
#2800
03
#2840
13
#2880
03
#2920
13
#2960
03
#3000
13
bx00000001000000000000000100000101000000000000000000001001 (
bx00000001000000000000000100000101000000000000000000001001 7
bx00000001000000000000000100000101000000000000000000001001 >
#3040
03
#3080
13
#3120
03
#3160
13
#3200
03
#3240
13
#3280
03
#3320
13
#3360
03
#3400
13
bx0000010100000001000000000000000100000101000000000000000000001001 (
bx0000010100000001000000000000000100000101000000000000000000001001 7
bx0000010100000001000000000000000100000101000000000000000000001001 >
#3440
03
#3480
13
#3520
03
#3560
13
#3600
03
#3640
13
#3680
03
#3720
13
#3760
03
#3800
13
bx000000010000010100000001000000000000000100000101000000000000000000001001 (
bx000000010000010100000001000000000000000100000101000000000000000000001001 7
bx000000010000010100000001000000000000000100000101000000000000000000001001 >
#3840
03
#3880
13
#3920
03
#3960
13
#4000
03
#4040
13
#4080
03
#4120
13
#4160
03
#4200
13
bx00000000000000010000010100000001000000000000000100000101000000000000000000001001 (
bx00000000000000010000010100000001000000000000000100000101000000000000000000001001 7
bx00000000000000010000010100000001000000000000000100000101000000000000000000001001 >
#4240
03
#4280
13
#4320
03
#4360
13
#4400
03
#4440
13
#4480
03
#4520
13
#4560
03
#4600
13
bx0000000000000000000000010000010100000001000000000000000100000101000000000000000000001001 (
bx0000000000000000000000010000010100000001000000000000000100000101000000000000000000001001 7
bx0000000000000000000000010000010100000001000000000000000100000101000000000000000000001001 >
#4640
03
#4680
13
#4720
03
#4760
13
#4800
03
#4840
13
#4880
03
#4920
13
#4960
03
#5000
13
bx000010100000000000000000000000010000010100000001000000000000000100000101000000000000000000001001 (
bx000010100000000000000000000000010000010100000001000000000000000100000101000000000000000000001001 7
bx000010100000000000000000000000010000010100000001000000000000000100000101000000000000000000001001 >
#5040
03
#5080
13
#5120
03
#5160
13
#5200
03
#5240
13
#5280
03
#5320
13
#5360
03
#5400
13
bx00000000000010100000000000000000000000010000010100000001000000000000000100000101000000000000000000001001 (
bx00000000000010100000000000000000000000010000010100000001000000000000000100000101000000000000000000001001 7
bx00000000000010100000000000000000000000010000010100000001000000000000000100000101000000000000000000001001 >
#5440
03
#5480
13
#5520
03
#5560
13
#5600
03
#5640
13
#5680
03
#5720
13
#5760
03
#5800
13
bx0000000100000000000010100000000000000000000000010000010100000001000000000000000100000101000000000000000000001001 (
bx0000000100000000000010100000000000000000000000010000010100000001000000000000000100000101000000000000000000001001 7
bx0000000100000000000010100000000000000000000000010000010100000001000000000000000100000101000000000000000000001001 >
#5840
03
#5880
13
#5920
03
#5960
13
#6000
03
#6040
13
#6080
03
#6120
13
#6160
03
#6200
13
bx000000000000000100000000000010100000000000000000000000010000010100000001000000000000000100000101000000000000000000001001 (
bx000000000000000100000000000010100000000000000000000000010000010100000001000000000000000100000101000000000000000000001001 7
bx000000000000000100000000000010100000000000000000000000010000010100000001000000000000000100000101000000000000000000001001 >
#6240
03
#6280
13
#6320
03
#6360
13
#6400
03
#6440
13
#6480
03
#6520
13
#6560
03
#6600
0'
bx 1
bx 5
bx C
b10 L
b0 K
13
06
0/
b1011000000000000000100000000000010100000000000000000000000010000010100000001000000000000000100000101000000000000000000001001 (
b1011000000000000000100000000000010100000000000000000000000010000010100000001000000000000000100000101000000000000000000001001 7
b1011000000000000000100000000000010100000000000000000000000010000010100000001000000000000000100000101000000000000000000001001 >
#6620
b0 E
1J
b1011000000000000000100000000000010100000000000000000000000010000010100000001000000000000000100000101000000000000000000001001 H
#6629
b0 3"
b0 T
b0 7"
b0 Y
b0 9"
b0 X
b0 ;"
b0 b
b0 u
b0 a
b0 ."
0+
0%
b0 -
b0 G
b0 O
b0 l
b0 /"
1F
#6630
b1 X
b1 ;"
b1001 b
b1001 u
b101000000000000000000001001 -
b101000000000000000000001001 G
b101000000000000000000001001 O
b101000000000000000000001001 l
b101000000000000000000001001 /"
b101000000000000000000001001 I
#6639
0@"
0?"
b1001 d
b1001 v
b1001 w
b1001 !"
b1001 $"
b1001 '"
b1001 )"
0S
1U
0f
0g
0_
1c
b0 i
b0 m
b0 x
#6640
03
#6649
b1 H"
b10 I"
b0 G"
b1001 `
b1001 p
b1001 6"
0R
b1001 2
b1001 N
b1001 B"
b1001 h
b1001 o
b1001 ~
b0 e
b0 s
b0 t
b1001 y
b1001 +"
b0 {
b0 &"
b1001 z
b1001 ("
b0 $
b0 P
b0 E"
b0 W
b0 }
b0 ""
b0 %"
b0 *"
b0 8"
b0 V
b0 j
b0 r
b0 :"
b100 \
b100 1"
b100 ="
b100 2"
#6658
1F"
#6659
0C"
b0 L"
0R"
0M"
b0 N"
b0 Q
b0 k
b0 q
b1001 |
b1001 #"
#6680
b0 L
0!
0D
13
#6690
b1 A
b100 ,
b100 @
b100 ^
b100 -"
b100 5"
#6700
b1 d
b1 v
b1 w
b1 !"
b1 $"
b1 '"
b1 )"
b100 3"
b1 T
b1 7"
b1 b
b1 u
b1 a
b1 ."
b101000000010000000000000001 -
b101000000010000000000000001 G
b101000000010000000000000001 O
b101000000010000000000000001 l
b101000000010000000000000001 /"
b1000 [
b1000 4"
b1000 A"
b101000000010000000000000001 I
b1000 ]
b1000 ,"
b1000 0"
b1000 >"
#6710
b0 I"
b1 `
b1 p
b1 6"
b1 2
b1 N
b1 B"
b1 h
b1 o
b1 ~
b1 {
b1 &"
b1 z
b1 ("
b1001 $
b1001 P
b1001 E"
b1001 W
b1001 }
b1001 ""
b1001 %"
b1001 *"
b1001 8"
#6720
b1010 |
b1010 #"
b1100 \
b1100 1"
b1100 ="
b1100 2"
03
#6760
13
#6770
b10 A
b1000 ,
b1000 @
b1000 ^
b1000 -"
b1000 5"
#6780
b0 3"
b0 T
b0 7"
b0 a
b0 ."
b1010000000000000000000000001 -
b1010000000000000000000000001 G
b1010000000000000000000000001 O
b1010000000000000000000000001 l
b1010000000000000000000000001 /"
b1100 [
b1100 4"
b1100 A"
b1010000000000000000000000001 I
b1100 ]
b1100 ,"
b1100 0"
b1100 >"
#6790
b1 T"
x!
1K"
b1 e
b1 s
b1 t
0c
0U
1%
b1 V
b1 j
b1 r
b1 :"
#6800
b11111111 Q
b11111111 k
b11111111 q
03
#6840
1:
1.
b0 0
b0 9
b0 J"
1&
b1 T"
b1 U"
13
#6880
03
#6920
13
#6960
03
#7000
13
#7040
03
#7080
13
#7120
03
#7160
13
#7200
03
#7240
13
#7280
03
#7320
13
bx00000000 )
bx00000000 ;
bx00000000 D"
#7360
03
#7400
13
#7440
03
#7480
13
#7520
03
#7560
13
#7600
03
#7640
13
#7680
03
#7720
13
bx0000000000000000 )
bx0000000000000000 ;
bx0000000000000000 D"
#7760
03
#7800
13
#7840
03
#7880
13
#7920
03
#7960
13
#8000
03
#8040
13
#8080
03
#8120
13
bx000000000000000000000000 )
bx000000000000000000000000 ;
bx000000000000000000000000 D"
#8160
03
#8200
13
#8240
03
#8280
13
#8320
03
#8360
13
#8400
03
#8440
13
#8480
03
#8520
bx 0
bx 9
bx J"
0&
1P"
b11 U"
b0 T"
13
0:
0.
b0 )
b0 ;
b0 D"
#8530
b0 Q"
#8540
0!
0K"
1C"
1R"
#8560
03
#8600
0P"
b0 U"
13
#8610
b11 A
b1100 ,
b1100 @
b1100 ^
b1100 -"
b1100 5"
b100100000000 N"
#8620
b1 Y
b1 9"
b0 X
b0 ;"
b0 b
b0 u
0%
b1011000000000000000100000000 -
b1011000000000000000100000000 G
b1011000000000000000100000000 O
b1011000000000000000100000000 l
b1011000000000000000100000000 /"
b10000 [
b10000 4"
b10000 A"
b1011000000000000000100000000 I
1M"
b1001 L"
b10000 ]
b10000 ,"
b10000 0"
b10000 >"
#8630
b0 d
b0 v
b0 w
b0 !"
b0 $"
b0 '"
b0 )"
0!
0K"
1c
1%
#8640
x!
1K"
b0 H"
b0 `
b0 p
b0 6"
1R
b0 2
b0 N
b0 B"
b0 h
b0 o
b0 ~
b1001 e
b1001 s
b1001 t
b1 y
b1 +"
b0 {
b0 &"
b0 z
b0 ("
b1 $
b1 P
b1 E"
b1 W
b1 }
b1 ""
b1 %"
b1 *"
b1 8"
b1001 V
b1001 j
b1001 r
b1001 :"
b10000 \
b10000 1"
b10000 ="
b10000 2"
03
#8650
0!
0K"
b0 L"
b11110111 Q
b11110111 k
b11110111 q
b1 |
b1 #"
#8680
13
#8690
b0 A
b1 B
b100100000001 N"
b10000 ,
b10000 @
b10000 ^
b10000 -"
b10000 5"
#8700
b0 Y
b0 9"
0%
b0 -
b0 G
b0 O
b0 l
b0 /"
b10100 [
b10100 4"
b10100 A"
b1 L"
b0 I
bx E
0J
b0 H
b10100 ]
b10100 ,"
b10100 0"
b10100 >"
#8709
b1 K
x!
1D
0F
#8710
b1 H"
b1 `
b1 p
b1 6"
0R
b1001 d
b1001 v
b1001 w
b1001 !"
b1001 $"
b1001 '"
b1001 )"
b1 2
b1 N
b1 B"
b1 h
b1 o
b1 ~
1U
0c
b1 i
b1 m
b1 x
#8720
b1001 L"
b1001 {
b1001 &"
b1001 y
b1001 +"
b1001 z
b1001 ("
b1001 $
b1001 P
b1001 E"
b1001 W
b1001 }
b1001 ""
b1001 %"
b1001 *"
b1001 8"
b10100 \
b10100 1"
b10100 ="
b10100 2"
03
#8730
b10 H"
b100 I"
b10010 `
b10010 p
b10010 6"
b10010 2
b10010 N
b10010 B"
b10010 h
b10010 o
b10010 ~
b10010 |
b10010 #"
#8740
0C"
b0 L"
0R"
0M"
b0 N"
#8760
16
1/
b1 K
1'
b1 1
b1 5
b1 C
b1 L
13
#8800
03
#8840
13
#8880
03
#8920
13
#8960
03
#9000
13
#9040
03
#9080
13
#9120
03
#9160
13
#9200
03
#9240
13
b1011000000000000000100000000000010100000000000000000000000010000010100000001000000000000000100000101000000000000000000000001 (
b1011000000000000000100000000000010100000000000000000000000010000010100000001000000000000000100000101000000000000000000000001 7
b1011000000000000000100000000000010100000000000000000000000010000010100000001000000000000000100000101000000000000000000000001 >
#9280
03
#9320
13
#9360
03
#9400
13
#9440
03
#9480
13
#9520
03
#9560
13
#9600
03
#9640
13
#9680
03
#9720
13
#9760
03
#9800
13
#9840
03
#9880
13
#9920
03
#9960
13
#10000
03
#10040
13
b1011000000000000000100000000000010100000000000000000000000010000010100000001000000000000000100000101000000100000000000000001 (
b1011000000000000000100000000000010100000000000000000000000010000010100000001000000000000000100000101000000100000000000000001 7
b1011000000000000000100000000000010100000000000000000000000010000010100000001000000000000000100000101000000100000000000000001 >
#10080
03
#10120
13
#10160
03
#10200
13
#10240
03
#10280
13
#10320
03
#10360
13
#10400
03
#10440
13
b1011000000000000000100000000000010100000000000000000000000010000010100000001000000000000000100001000000000100000000000000001 (
b1011000000000000000100000000000010100000000000000000000000010000010100000001000000000000000100001000000000100000000000000001 7
b1011000000000000000100000000000010100000000000000000000000010000010100000001000000000000000100001000000000100000000000000001 >
#10480
03
#10520
13
#10560
03
#10600
13
#10640
03
#10680
13
#10720
03
#10760
13
#10800
03
#10840
13
#10880
03
#10920
13
#10960
03
#11000
13
#11040
03
#11080
13
#11120
03
#11160
13
#11200
03
#11240
13
#11280
03
#11320
13
#11360
03
#11400
13
#11440
03
#11480
13
#11520
03
#11560
13
#11600
03
#11640
13
b1011000000000000000100000000000010100000000000000000000000010000010100000011000000000000000100001000000000100000000000000001 (
b1011000000000000000100000000000010100000000000000000000000010000010100000011000000000000000100001000000000100000000000000001 7
b1011000000000000000100000000000010100000000000000000000000010000010100000011000000000000000100001000000000100000000000000001 >
#11680
03
#11720
13
#11760
03
#11800
13
#11840
03
#11880
13
#11920
03
#11960
13
#12000
03
#12040
13
b1011000000000000000100000000000010100000000000000000000000010000100000000011000000000000000100001000000000100000000000000001 (
b1011000000000000000100000000000010100000000000000000000000010000100000000011000000000000000100001000000000100000000000000001 7
b1011000000000000000100000000000010100000000000000000000000010000100000000011000000000000000100001000000000100000000000000001 >
#12080
03
#12120
13
#12160
03
#12200
13
#12240
03
#12280
13
#12320
03
#12360
13
#12400
03
#12440
13
#12480
03
#12520
13
#12560
03
#12600
13
#12640
03
#12680
13
#12720
03
#12760
13
#12800
03
#12840
13
#12880
03
#12920
13
#12960
03
#13000
13
#13040
03
#13080
13
#13120
03
#13160
13
#13200
03
#13240
13
b1011000000000000000100000000000010100000010000000000000000010000100000000011000000000000000100001000000000100000000000000001 (
b1011000000000000000100000000000010100000010000000000000000010000100000000011000000000000000100001000000000100000000000000001 7
b1011000000000000000100000000000010100000010000000000000000010000100000000011000000000000000100001000000000100000000000000001 >
#13280
03
#13320
13
#13360
03
#13400
13
#13440
03
#13480
13
#13520
03
#13560
13
#13600
03
#13640
13
b1011000000000000000100000000000000010000010000000000000000010000100000000011000000000000000100001000000000100000000000000001 (
b1011000000000000000100000000000000010000010000000000000000010000100000000011000000000000000100001000000000100000000000000001 7
b1011000000000000000100000000000000010000010000000000000000010000100000000011000000000000000100001000000000100000000000000001 >
#13680
03
#13720
13
#13760
03
#13800
13
#13840
03
#13880
13
#13920
03
#13960
13
#14000
03
#14040
13
b1011000000000000000100000010000000010000010000000000000000010000100000000011000000000000000100001000000000100000000000000001 (
b1011000000000000000100000010000000010000010000000000000000010000100000000011000000000000000100001000000000100000000000000001 7
b1011000000000000000100000010000000010000010000000000000000010000100000000011000000000000000100001000000000100000000000000001 >
#14080
03
#14120
13
#14160
03
#14200
13
#14240
03
#14280
13
#14320
03
#14360
13
#14400
03
#14440
13
b1011000000000000010000000010000000010000010000000000000000010000100000000011000000000000000100001000000000100000000000000001 (
b1011000000000000010000000010000000010000010000000000000000010000100000000011000000000000000100001000000000100000000000000001 7
b1011000000000000010000000010000000010000010000000000000000010000100000000011000000000000000100001000000000100000000000000001 >
#14480
03
#14520
13
#14560
03
#14600
13
#14640
03
#14680
13
#14720
03
#14760
13
#14800
03
#14840
13
#14880
03
#14920
13
#14960
03
#15000
13
#15040
03
#15080
13
#15120
03
#15160
13
#15200
03
#15240
0'
bx 1
bx 5
bx C
b10 L
b0 K
13
06
0/
#15260
b0 E
1J
b1011000000000000010000000010000000010000010000000000000000010000100000000011000000000000000100001000000000100000000000000001 H
#15269
1F
#15270
b1000 3"
b10 T
b10 7"
b1 X
b1 ;"
b1 b
b1 u
b10 a
b10 ."
b1000000000100000000000000001 -
b1000000000100000000000000001 G
b1000000000100000000000000001 O
b1000000000100000000000000001 l
b1000000000100000000000000001 /"
b1000000000100000000000000001 I
#15280
b1 H"
b10 I"
bx `
bx p
bx 6"
b1 T"
1!
1K"
b1001 2
b1001 N
b1001 B"
b1001 h
b1001 o
b1001 ~
1S
1+
b0 i
b0 m
b0 x
03
#15290
b1 d
b1 v
b1 w
b1 !"
b1 $"
b1 '"
b1 )"
b1 e
b1 s
b1 t
b1 V
b1 j
b1 r
b1 :"
b11100 \
b11100 1"
b11100 ="
b11100 2"
#15300
b0 I"
b1 2
b1 N
b1 B"
b1 h
b1 o
b1 ~
b1 {
b1 &"
b1 z
b1 ("
b11111111 Q
b11111111 k
b11111111 q
#15310
b0 `
b0 p
b0 6"
x!
0K"
b0 *
b0 Z
b0 n
b0 O"
1C"
b0 T"
1R"
1M"
b100100000001 N"
b1010 |
b1010 #"
#15320
b1001 `
b1001 p
b1001 6"
b1001 *
b1001 Z
b1001 n
b1001 O"
b0 L
0!
0D
b1001 L"
13
#15330
b1 A
b10100 ,
b10100 @
b10100 ^
b10100 -"
b10100 5"
#15340
b1100 3"
b11 T
b11 7"
b11 a
b11 ."
0+
b1000000000110000000000000001 -
b1000000000110000000000000001 G
b1000000000110000000000000001 O
b1000000000110000000000000001 l
b1000000000110000000000000001 /"
b11000 [
b11000 4"
b11000 A"
b1000000000110000000000000001 I
b11000 ]
b11000 ,"
b11000 0"
b11000 >"
#15350
0!
0K"
1+
#15360
b100100 \
b100100 1"
b100100 ="
b100100 2"
03
#15400
13
#15410
b10 A
b11000 ,
b11000 @
b11000 ^
b11000 -"
b11000 5"
#15420
b10000 3"
b100 T
b100 7"
b100 a
b100 ."
0+
b1000001000000000000000001 -
b1000001000000000000000001 G
b1000001000000000000000001 O
b1000001000000000000000001 l
b1000001000000000000000001 /"
b11100 [
b11100 4"
b11100 A"
b1000001000000000000000001 I
b11100 ]
b11100 ,"
b11100 0"
b11100 >"
#15430
b11111111 d
b11111111 v
b11111111 w
b11111111 !"
b11111111 $"
b11111111 '"
b11111111 )"
b10 H"
b10 I"
b1010 `
b1010 p
b1010 6"
b11111111 e
b11111111 s
b11111111 t
b1010 2
b1010 N
b1010 B"
b1010 h
b1010 o
b1010 ~
0S
1f
b1 i
b1 m
b1 x
#15440
0C"
b1001 {
b1001 &"
b11111111 y
b11111111 +"
b11111111 z
b11111111 ("
b0 L"
0R"
0M"
b0 N"
b101100 \
b101100 1"
b101100 ="
b101100 2"
03
#15450
b0 H"
b1000 `
b1000 p
b1000 6"
b1000 2
b1000 N
b1000 B"
b1000 h
b1000 o
b1000 ~
b1000 |
b1000 #"
#15480
13
#15490
b11 A
b11100 ,
b11100 @
b11100 ^
b11100 -"
b11100 5"
#15500
b0 3"
b0 T
b0 7"
b100 Y
b100 9"
b10 X
b10 ;"
b10 b
b10 u
b0 a
b0 ."
b1011000000000000010000000010 -
b1011000000000000010000000010 G
b1011000000000000010000000010 O
b1011000000000000010000000010 l
b1011000000000000010000000010 /"
b100000 [
b100000 4"
b100000 A"
b1011000000000000010000000010 I
b100000 ]
b100000 ,"
b100000 0"
b100000 >"
#15510
b11 H"
b111 I"
b111 G"
b11111111 `
b11111111 p
b11111111 6"
b1 e
b1 s
b1 t
b10 d
b10 v
b10 w
b10 !"
b10 $"
b10 '"
b10 )"
b1 T"
x!
1K"
b11111111 2
b11111111 N
b11111111 B"
b11111111 h
b11111111 o
b11111111 ~
0f
0U
1c
1%
b0 i
b0 m
b0 x
#15519
0F"
